<?xml version="1.0" encoding="UTF-8"?>
<svg width="117px" height="116px" viewBox="0 0 117 116" version="1.1" xmlns="http://www.w3.org/2000/svg" xmlns:xlink="http://www.w3.org/1999/xlink">
    <!-- Generator: sketchtool 57.1 (101010) - https://sketch.com -->
    <title>53BDF042-C87C-474F-9955-857E25173985</title>
    <desc>Created with sketchtool.</desc>
    <defs>
        <filter x="-4.0%" y="-4.0%" width="108.1%" height="108.1%" filterUnits="objectBoundingBox" id="filter-1">
            <feGaussianBlur stdDeviation="1.38461538" in="SourceGraphic"></feGaussianBlur>
        </filter>
    </defs>
    <g id="Zapy_-Android" stroke="none" stroke-width="1" fill="none" fill-rule="evenodd">
        <g id="Q&amp;A_wrong" transform="translate(-122.000000, -244.000000)">
            <g id="Group-5" transform="translate(30.000000, 198.000000)">
                <g id="Group-7" transform="translate(90.000000, 49.000000)">
                    <g id="Group-2" transform="translate(5.500000, 0.000000)">
                        <g id="Group-4" stroke="#3A3A3A" stroke-width="0.5">
                            <circle id="Oval-5" filter="url(#filter-1)" cx="54.6923077" cy="54.6923077" r="54.6923077"></circle>
                        </g>
                        <g id="Group-6" transform="translate(34.000000, 35.000000)" fill-rule="nonzero" stroke="#D65E5E" stroke-linecap="round" stroke-width="2">
                            <path d="M0.444444444,0.444444444 L39.4189534,39.4189534" id="Line-4"></path>
                            <path d="M0.444444444,0.444444444 L39.4189534,39.4189534" id="Line-4" stroke-linejoin="round" transform="translate(20.000000, 20.000000) scale(-1, 1) translate(-20.000000, -20.000000) "></path>
                        </g>
                    </g>
                </g>
            </g>
        </g>
    </g>
</svg>