<?xml version="1.0" encoding="UTF-8"?>
<svg width="360px" height="640px" viewBox="0 0 360 640" version="1.1" xmlns="http://www.w3.org/2000/svg" xmlns:xlink="http://www.w3.org/1999/xlink">
    <!-- Generator: Sketch 51.3 (57544) - http://www.bohemiancoding.com/sketch -->
    <title>Group</title>
    <desc>Created with Sketch.</desc>
    <defs>
        <linearGradient x1="41.4010912%" y1="94.6685037%" x2="41.4000358%" y2="0%" id="linearGradient-1">
            <stop stop-color="#BBD1B9" offset="0%"></stop>
            <stop stop-color="#30AAB2" offset="50.3089126%"></stop>
            <stop stop-color="#223F59" offset="100%"></stop>
        </linearGradient>
        <linearGradient x1="50%" y1="-1.11022302e-14%" x2="51.2976173%" y2="97.875271%" id="linearGradient-2">
            <stop stop-color="#BBD1B9" offset="0%"></stop>
            <stop stop-color="#30AAB2" offset="50.3089126%"></stop>
            <stop stop-color="#223F59" offset="100%"></stop>
        </linearGradient>
    </defs>
    <g id="Zapy_-Android" stroke="none" stroke-width="1" fill="none" fill-rule="evenodd">
        <g id="Check-In">
            <g id="Group">
                <polygon id="Mask" points="0 0 360 0 360 640 0 640"></polygon>
                <g id="Group-4" transform="translate(-241.560468, -135.191069)">
                    <g id="Group-3">
                        <path d="M37.1076385,609.577879 C28.0503513,620.5244 22.6408909,634.562959 22.6408909,649.863211 C22.6408909,684.835215 51.0227634,713.196657 86.0419013,713.196657 L524.083628,713.196657 L589.53098,637.31736 C603.303751,619.653654 590.189368,598.453654 571.505377,598.453654 L553.408597,598.453654 L526.325707,598.453654 L292.971553,598.453654 L292.971553,476.673601 C292.971553,441.719367 264.571886,413.357924 229.534954,413.357924 C209.854483,413.357924 192.255943,422.33194 180.600691,436.406039 L37.1076385,609.577879 Z" id="Fill-1" fill="url(#linearGradient-1)" opacity="0.1" transform="translate(308.945248, 563.277291) rotate(45.000000) translate(-308.945248, -563.277291) "></path>
                        <path d="M804.403813,261.319586 C813.384812,250.267954 818.776947,236.094594 818.776947,220.647427 C818.776947,185.339614 790.578731,156.70584 755.786199,156.70584 L320.579003,156.70584 L255.555155,233.331686 C241.871506,251.12912 254.901027,272.550628 273.446436,272.550628 L291.426114,272.550628 L318.351432,272.550628 L550.195571,272.550628 L550.195571,395.500037 C550.195571,430.789908 578.411466,459.423683 613.203998,459.423683 C632.774798,459.423683 650.259459,450.363497 661.821612,436.154256 L804.403813,261.319586 Z" id="Fill-4" fill="url(#linearGradient-2)" opacity="0.103738839" transform="translate(534.325026, 308.064761) rotate(45.000000) translate(-534.325026, -308.064761) "></path>
                    </g>
                    <g id="Group-3-Copy" transform="translate(0.000000, 37.423133)">
                        <path d="M37.1076385,609.577879 C28.0503513,620.5244 22.6408909,634.562959 22.6408909,649.863211 C22.6408909,684.835215 51.0227634,713.196657 86.0419013,713.196657 L524.083628,713.196657 L589.53098,637.31736 C603.303751,619.653654 590.189368,598.453654 571.505377,598.453654 L553.408597,598.453654 L526.325707,598.453654 L292.971553,598.453654 L292.971553,476.673601 C292.971553,441.719367 264.571886,413.357924 229.534954,413.357924 C209.854483,413.357924 192.255943,422.33194 180.600691,436.406039 L37.1076385,609.577879 Z" id="Fill-1" fill="url(#linearGradient-1)" opacity="0.1" transform="translate(308.945248, 563.277291) rotate(45.000000) translate(-308.945248, -563.277291) "></path>
                        <path d="M804.403813,261.319586 C813.384812,250.267954 818.776947,236.094594 818.776947,220.647427 C818.776947,185.339614 790.578731,156.70584 755.786199,156.70584 L320.579003,156.70584 L255.555155,233.331686 C241.871506,251.12912 254.901027,272.550628 273.446436,272.550628 L291.426114,272.550628 L318.351432,272.550628 L550.195571,272.550628 L550.195571,395.500037 C550.195571,430.789908 578.411466,459.423683 613.203998,459.423683 C632.774798,459.423683 650.259459,450.363497 661.821612,436.154256 L804.403813,261.319586 Z" id="Fill-4" fill="url(#linearGradient-2)" opacity="0.103738839" transform="translate(534.325026, 308.064761) rotate(45.000000) translate(-534.325026, -308.064761) "></path>
                    </g>
                </g>
            </g>
        </g>
    </g>
</svg>