<?xml version="1.0" encoding="UTF-8"?>
<svg width="116px" height="116px" viewBox="0 0 116 116" version="1.1" xmlns="http://www.w3.org/2000/svg" xmlns:xlink="http://www.w3.org/1999/xlink">
    <!-- Generator: sketchtool 58 (101010) - https://sketch.com -->
    <title>2A4EC720-FB7C-48A6-9F24-9C8A04783912</title>
    <desc>Created with sketchtool.</desc>
    <defs>
        <filter x="-4.0%" y="-4.0%" width="108.1%" height="108.1%" filterUnits="objectBoundingBox" id="filter-1">
            <feGaussianBlur stdDeviation="1.38461538" in="SourceGraphic"></feGaussianBlur>
        </filter>
    </defs>
    <g id="Zapy_-Android" stroke="none" stroke-width="1" fill="none" fill-rule="evenodd">
        <g id="Q&amp;A_correct" transform="translate(-122.000000, -244.000000)">
            <g id="Group-5" transform="translate(30.000000, 198.000000)">
                <g id="Group-7" transform="translate(95.000000, 49.000000)">
                    <g id="Correct">
                        <polyline id="Path-2" stroke="#00B070" stroke-width="2" stroke-linecap="round" stroke-linejoin="round" points="35 58.5281647 48.6128407 72.1410054 78.7538462 42"></polyline>
                        <circle id="Oval-5" stroke="#333333" stroke-width="0.5" filter="url(#filter-1)" cx="54.6923077" cy="54.6923077" r="54.6923077"></circle>
                    </g>
                </g>
            </g>
        </g>
    </g>
</svg>